…
``` r
datasets
```

    ## # A tibble: 21 x 2
    ##    subjects   data            
    ##    <chr>      <list>          
    ##  1 con_01.csv <tibble [1 x 8]>
    ##  2 con_02.csv <tibble [1 x 8]>
    ##  3 con_03.csv <tibble [1 x 8]>
    ##  4 con_04.csv <tibble [1 x 8]>
    ##  5 con_05.csv <tibble [1 x 8]>
    ##  6 con_06.csv <tibble [1 x 8]>
    ##  7 con_07.csv <tibble [1 x 8]>
    ##  8 con_08.csv <tibble [1 x 8]>
    ##  9 con_09.csv <tibble [1 x 8]>
    ## 10 con_10.csv <tibble [1 x 8]>
    ## # ... with 11 more rows
…
    ## Warning: Expected 2 pieces. Missing pieces filled with `NA` in 52179 rows
    ## [21, 22, 23, 24, 25, 26, 27, 28, 29, 30, 31, 32, 33, 34, 35, 36, 37, 38,
    ## 39, 40, ...].

``` r
participants
```

    ## # A tibble: 417,592 x 16
    ##    arm   participant_id uid   reported_date victim_last victim_first
    ##    <chr> <chr>          <chr>         <int> <chr>       <chr>       
    ##  1 con   01             <NA>             NA <NA>        <NA>        
    ##  2 con   02             <NA>             NA <NA>        <NA>        
    ##  3 con   03             <NA>             NA <NA>        <NA>        
    ##  4 con   04             <NA>             NA <NA>        <NA>        
    ##  5 con   05             <NA>             NA <NA>        <NA>        
    ##  6 con   06             <NA>             NA <NA>        <NA>        
    ##  7 con   07             <NA>             NA <NA>        <NA>        
    ##  8 con   08             <NA>             NA <NA>        <NA>        
    ##  9 con   09             <NA>             NA <NA>        <NA>        
    ## 10 con   10             <NA>             NA <NA>        <NA>        
    ## # ... with 417,582 more rows, and 10 more variables: victim_race <chr>,
    ## #   victim_age <chr>, victim_sex <chr>, city <chr>, state <chr>,
    ## #   lat <dbl>, lon <dbl>, disposition <chr>, week <chr>, observation <dbl>
…
Describe the raw data.
======================

Create a city\_state variable (e.g. “Baltimore, MD”) and then summarize within cities to obtain the total number of homicides and the number of unsolved homicides (those for which the disposition is “Closed without arrest” or “Open/No arrest”).

``` r
homicide_data %>% 
  mutate(city_state = str_c(city, state, sep = ","))
```

    ## # A tibble: 52,179 x 13
    ##    uid   reported_date victim_last victim_first victim_race victim_age
    ##    <chr>         <int> <chr>       <chr>        <chr>       <chr>     
    ##  1 Alb-~      20100504 GARCIA      JUAN         Hispanic    78        
    ##  2 Alb-~      20100216 MONTOYA     CAMERON      Hispanic    17        
    ##  3 Alb-~      20100601 SATTERFIELD VIVIANA      White       15        
    ##  4 Alb-~      20100101 MENDIOLA    CARLOS       Hispanic    32        
    ##  5 Alb-~      20100102 MULA        VIVIAN       White       72        
    ##  6 Alb-~      20100126 BOOK        GERALDINE    White       91        
    ##  7 Alb-~      20100127 MALDONADO   DAVID        Hispanic    52        
    ##  8 Alb-~      20100127 MALDONADO   CONNIE       Hispanic    52        
    ##  9 Alb-~      20100130 MARTIN-LEY~ GUSTAVO      White       56        
    ## 10 Alb-~      20100210 HERRERA     ISRAEL       Hispanic    43        
    ## # ... with 52,169 more rows, and 7 more variables: victim_sex <chr>,
    ## #   city <chr>, state <chr>, lat <dbl>, lon <dbl>, disposition <chr>,
    ## #   city_state <chr>
